<?xml version="1.0" encoding="UTF-8" standalone="no"?>
<svg width="21px" height="30px" viewBox="0 0 21 30" version="1.1" xmlns="http://www.w3.org/2000/svg" xmlns:xlink="http://www.w3.org/1999/xlink">
    <!-- Generator: sketchtool 39.1 (31720) - http://www.bohemiancoding.com/sketch -->
    <title>09AB88C6-3292-48F5-B0FA-CEA4CA0D9FF2</title>
    <desc>Created with sketchtool.</desc>
    <defs></defs>
    <g id="Page-1" stroke="none" stroke-width="1" fill="none" fill-rule="evenodd">
        <g id="04Habba-Product-Basket-02" transform="translate(-1137.000000, -54.000000)">
            <g id="Group" transform="translate(1137.000000, 50.000000)">
                <g id="bag-rolled-over" transform="translate(0.500000, 4.000000)">
                    <polygon id="Fill-1" fill="#FFFFFF" points="3.0849629 8.06023941 0.676152952 28.7350552 19.5455657 28.7350552 17.1367557 8.06023941"></polygon>
                    <g id="Group-14" transform="translate(0.000000, 0.431659)">
                        <polygon id="Stroke-2" stroke="#000000" points="19.5456861 28.3035169 0.676273393 28.3035169 3.08508334 7.6274967 17.1368762 7.6274967"></polygon>
                        <polygon id="Stroke-2" fill="#EC6543" points="17.0012168 25.5154333 3.22074272 25.5154333 4.97991475 10.4155802 15.2420448 10.4155802"></polygon>
                        <path d="M6.23664984,7.6280989 L6.23664984,4.0449941 C6.23664984,1.90597087 7.970993,0.170423304 10.1112206,0.170423304 C12.2514483,0.170423304 13.9857914,1.90597087 13.9857914,4.0449941 L13.9857914,7.6280989" id="Stroke-4" stroke="#000000"></path>
                        <path d="M13.9853097,12.8129244 L13.9853097,18.1725266 C13.9853097,20.3115498 12.2509665,22.0470974 10.1107389,22.0470974 C7.97051124,22.0470974 6.23616807,20.3115498 6.23616807,18.1725266 L6.23616807,12.8129244" id="Stroke-6" stroke="#000000"></path>
                        <path d="M7.2233437,10.2913719 C7.2233437,10.8272287 6.78920046,11.2613719 6.25334367,11.2613719 C5.71996769,11.2613719 5.28582446,10.8272287 5.28582446,10.2913719 C5.28582446,9.75551509 5.71996769,9.32137185 6.25334367,9.32137185 C6.78920046,9.32137185 7.2233437,9.75551509 7.2233437,10.2913719" id="Fill-8" fill="#000000"></path>
                        <path d="M14.9709528,10.2913719 C14.9709528,10.8272287 14.5368095,11.2613719 14.0009527,11.2613719 C13.4675768,11.2613719 13.0334335,10.8272287 13.0334335,10.2913719 C13.0334335,9.75551509 13.4675768,9.32137185 14.0009527,9.32137185 C14.5368095,9.32137185 14.9709528,9.75551509 14.9709528,10.2913719" id="Fill-10" fill="#000000"></path>
                    </g>
                </g>
            </g>
        </g>
    </g>
</svg>