<?xml version="1.0" encoding="UTF-8" standalone="no"?>
<svg width="17px" height="17px" viewBox="0 0 17 17" version="1.1" xmlns="http://www.w3.org/2000/svg" xmlns:xlink="http://www.w3.org/1999/xlink">
    <!-- Generator: sketchtool 3.8.3 (29802) - http://www.bohemiancoding.com/sketch -->
    <title>C00DC522-AC4A-4BDD-B769-DA8051578769</title>
    <desc>Created with sketchtool.</desc>
    <defs></defs>
    <g id="Page-1" stroke="none" stroke-width="1" fill="none" fill-rule="evenodd" stroke-linecap="square">
        <g id="06Habba-UserAccount10" transform="translate(-1091.000000, -29.000000)" stroke="#979797" stroke-width="2">
            <g id="close" transform="translate(1099.282957, 37.098783) rotate(-45.000000) translate(-1099.282957, -37.098783) translate(1089.282957, 27.098783)">
                <path d="M10,0.5 L10,19.5262985" id="Line"></path>
                <path d="M10,0.5 L10,19.5262985" id="Line" transform="translate(10.000000, 10.000000) rotate(-270.000000) translate(-10.000000, -10.000000) "></path>
            </g>
        </g>
    </g>
</svg>