<?xml version="1.0" encoding="UTF-8" standalone="no"?>
<svg width="45px" height="23px" viewBox="0 0 45 23" version="1.1" xmlns="http://www.w3.org/2000/svg" xmlns:xlink="http://www.w3.org/1999/xlink">
    <!-- Generator: sketchtool 3.8.3 (29802) - http://www.bohemiancoding.com/sketch -->
    <title>47A7C00F-DFEA-46AE-AD3F-C1FCC57E4263</title>
    <desc>Created with sketchtool.</desc>
    <defs></defs>
    <g id="Page-1" stroke="none" stroke-width="1" fill="none" fill-rule="evenodd">
        <g id="05Habba-PaymentFlow-12" transform="translate(-695.000000, -334.000000)">
            <g id="delivery-van-big" transform="translate(695.000000, 335.000000)">
                <polygon id="Fill-1" fill="#D435B6" points="13.1647913 20.0925351 30.6539329 20.0925351 30.6539329 8.64796494 13.1647913 8.64796494"></polygon>
                <polygon id="Fill-2" fill="#D435B6" points="34.231721 20.2289289 44.0974952 20.2289289 44.0974952 14.8846845 34.231721 9.53908029"></polygon>
                <polygon id="Stroke-3" stroke="#000000" points="10.7714401 18.063626 29.1295314 18.063626 29.1295314 6.05199484 10.7714401 6.05199484"></polygon>
                <g id="Group-32" transform="translate(0.000000, 0.036484)">
                    <polygon id="Stroke-4" stroke="#000000" points="42.9543981 18.0274137 32.5990747 18.0274137 32.5990747 6.80858015 42.9543981 12.4179969"></polygon>
                    <path d="M19.0214304,18.6615158 C19.0214304,20.1940765 17.7785196,21.4383471 16.2445991,21.4383471 C14.7120384,21.4383471 13.4691276,20.1940765 13.4691276,18.6615158 C13.4691276,17.1275953 14.7120384,15.8846845 16.2445991,15.8846845 C17.7785196,15.8846845 19.0214304,17.1275953 19.0214304,18.6615158" id="Fill-6" fill="#FFFFFF"></path>
                    <path d="M19.0214304,18.6615158 C19.0214304,20.1940765 17.7785196,21.4383471 16.2445991,21.4383471 C14.7120384,21.4383471 13.4691276,20.1940765 13.4691276,18.6615158 C13.4691276,17.1275953 14.7120384,15.8846845 16.2445991,15.8846845 C17.7785196,15.8846845 19.0214304,17.1275953 19.0214304,18.6615158 L19.0214304,18.6615158 Z" id="Stroke-8" stroke="#000000"></path>
                    <path d="M40.1609765,18.6615158 C40.1609765,20.1940765 38.9180657,21.4383471 37.3841452,21.4383471 C35.8515845,21.4383471 34.6086738,20.1940765 34.6086738,18.6615158 C34.6086738,17.1275953 35.8515845,15.8846845 37.3841452,15.8846845 C38.9180657,15.8846845 40.1609765,17.1275953 40.1609765,18.6615158" id="Fill-10" fill="#FFFFFF"></path>
                    <path d="M40.1609765,18.6615158 C40.1609765,20.1940765 38.9180657,21.4383471 37.3841452,21.4383471 C35.8515845,21.4383471 34.6086738,20.1940765 34.6086738,18.6615158 C34.6086738,17.1275953 35.8515845,15.8846845 37.3841452,15.8846845 C38.9180657,15.8846845 40.1609765,17.1275953 40.1609765,18.6615158 L40.1609765,18.6615158 Z" id="Stroke-12" stroke="#000000"></path>
                    <path d="M16.7831031,6.01578257 C16.7831031,9.33519746 14.0919429,12.0263577 10.7711681,12.0263577 C7.45175325,12.0263577 4.76059304,9.33519746 4.76059304,6.01578257 C4.76059304,2.69500783 7.45175325,0.00384763069 10.7711681,0.00384763069 C14.0919429,0.00384763069 16.7831031,2.69500783 16.7831031,6.01578257" id="Fill-14" fill="#FFFFFF"></path>
                    <path d="M16.7831031,6.01578257 C16.7831031,9.33519746 14.0919429,12.0263577 10.7711681,12.0263577 C7.45175325,12.0263577 4.76059304,9.33519746 4.76059304,6.01578257 C4.76059304,2.69500783 7.45175325,0.00384763069 10.7711681,0.00384763069 C14.0919429,0.00384763069 16.7831031,2.69500783 16.7831031,6.01578257 L16.7831031,6.01578257 Z" id="Stroke-16" stroke="#000000"></path>
                    <g id="Group-21" transform="translate(8.159152, 2.719717)">
                        <polyline id="Fill-18" fill="#FFFFFF" points="0.0764240542 2.17391001 2.22908024 4.20553878 5.00591154 0.176277703"></polyline>
                        <polyline id="Stroke-20" stroke="#000000" points="0.0764240542 2.17391001 2.22908024 4.20553878 5.00591154 0.176277703"></polyline>
                    </g>
                    <path d="M0.000679929308,10.2314803 L2.55041484,10.2314803" id="Stroke-22" stroke="#000000"></path>
                    <path d="M0.629478554,14.0892632 L2.41361306,14.0892632" id="Stroke-24" stroke="#000000"></path>
                    <path d="M4.02844517,14.0892632 L8.23584772,14.0892632" id="Stroke-26" stroke="#000000"></path>
                    <path d="M1.95479676,17.4829263 L3.22898428,17.4829263" id="Stroke-28" stroke="#000000"></path>
                    <path d="M4.84381639,17.4829263 L8.07348061,17.4829263" id="Stroke-30" stroke="#000000"></path>
                </g>
            </g>
        </g>
    </g>
</svg>