<?xml version="1.0" encoding="UTF-8" standalone="no"?>
<svg width="11px" height="19px" viewBox="0 0 11 19" version="1.1" xmlns="http://www.w3.org/2000/svg" xmlns:xlink="http://www.w3.org/1999/xlink">
    <!-- Generator: sketchtool 3.8.3 (29802) - http://www.bohemiancoding.com/sketch -->
    <title>F2FBF2B5-272C-42D3-8FF9-0E4962778276</title>
    <desc>Created with sketchtool.</desc>
    <defs></defs>
    <g id="Page-1" stroke="none" stroke-width="1" fill="none" fill-rule="evenodd">
        <g id="04Habba-Product-01" transform="translate(-1166.000000, -146.000000)" stroke="#686868">
            <g id="Group-16" transform="translate(1133.500000, 146.000000)">
                <path d="M35.7183441,9.62672741 L35.7183441,18.3954539 L39.3776811,18.3954539 L39.3776811,9.57713564 L41.9182026,9.57713564 C42.009774,8.59431694 42.1001715,7.6385483 42.191743,6.65009417 L39.3800291,6.65009417 C39.3800291,5.93101351 39.3624192,5.24687252 39.3870731,4.56723986 C39.398813,4.19980993 39.5913479,4.02849291 39.9717217,3.99580743 C40.269916,3.9665032 40.5704583,3.96875737 40.8686526,3.9665032 C41.3018561,3.96199486 41.7350596,3.96424903 42.1729591,3.96424903 L42.1729591,0.863636364 C40.8639566,0.919990647 39.56552,0.898576019 38.2952593,1.05636801 C37.0073887,1.21528709 36.1081098,1.94676569 35.8193075,3.22375375 C35.7394759,3.57540447 35.7159961,3.94396149 35.7089521,4.3046289 C35.6936902,5.07555549 35.7019082,5.84760918 35.7019082,6.66023794 L33.808257,6.66023794 L33.808257,9.62672741 L35.7183441,9.62672741 Z" id="Facebook-prodPage"></path>
            </g>
        </g>
    </g>
</svg>