<?xml version="1.0" encoding="UTF-8" standalone="no"?>
<svg width="512px" height="11px" viewBox="0 0 512 11" version="1.1" xmlns="http://www.w3.org/2000/svg" xmlns:xlink="http://www.w3.org/1999/xlink">
    <!-- Generator: sketchtool 39.1 (31720) - http://www.bohemiancoding.com/sketch -->
    <title>A03665BB-91BF-4F53-A7A3-D522EF6D0294</title>
    <desc>Created with sketchtool.</desc>
    <defs></defs>
    <g id="Page-1" stroke="none" stroke-width="1" fill="none" fill-rule="evenodd" stroke-linecap="round" stroke-linejoin="round">
        <g id="01HabbaHome-Updated01" transform="translate(-693.000000, -7199.000000)" stroke-width="2" stroke="#D7D7D0">
            <g id="footer" transform="translate(0.000000, 6970.000000)">
                <g id="footer-zigzag-divider" transform="translate(949.291484, 233.799636) scale(1, -1) translate(-949.291484, -233.799636) translate(694.582968, 229.299636)">
                    <polyline id="Stroke-107" points="71.9866596 8.02639736 63.0270933 0 54.0675269 8.02639736 45.1067946 0 36.1448962 8.02639736 27.1783339 0 18.2164356 8.02639736 9.24754121 0 0.277480851 8.02639736"></polyline>
                    <polyline id="Stroke-111" points="144.850414 8.02639736 135.890848 0 126.930116 8.02639736 117.970549 0 109.007485 8.02639736 100.040923 0 91.0801904 8.02639736 82.11013 0 73.1412357 8.02639736"></polyline>
                    <polyline id="Stroke-115" points="217.714286 8.02639736 208.754719 0 199.793987 8.02639736 190.834421 0 181.871356 8.02639736 172.904794 0 163.944062 8.02639736 154.972835 0 146.005107 8.02639736"></polyline>
                    <polyline id="Stroke-119" points="290.578041 8.02639736 281.618474 0 272.657742 8.02639736 263.698176 0 254.735111 8.02639736 245.768549 0 236.807817 8.02639736 227.83659 0 218.868862 8.02639736"></polyline>
                    <polyline id="Stroke-123" points="363.441795 8.02639736 354.482229 0 345.521497 8.02639736 336.56193 0 327.598866 8.02639736 318.632304 0 309.671571 8.02639736 300.700345 0 291.732617 8.02639736"></polyline>
                    <polyline id="Stroke-127" points="436.305667 8.02639736 427.3461 0 418.385368 8.02639736 409.425802 0 400.462737 8.02639736 391.496175 0 382.535443 8.02639736 373.564216 0 364.596488 8.02639736"></polyline>
                    <polyline id="Stroke-131" points="509.169422 8.02639736 500.209855 0 491.249123 8.02639736 482.289557 0 473.326492 8.02639736 464.35993 0 455.399198 8.02639736 446.427971 0 437.460243 8.02639736"></polyline>
                </g>
            </g>
        </g>
    </g>
</svg>