<?xml version="1.0" encoding="UTF-8" standalone="no"?>
<svg width="20px" height="16px" viewBox="0 0 20 16" version="1.1" xmlns="http://www.w3.org/2000/svg" xmlns:xlink="http://www.w3.org/1999/xlink">
    <!-- Generator: sketchtool 3.8.3 (29802) - http://www.bohemiancoding.com/sketch -->
    <title>CF3FD2DD-43FF-4DB7-98D9-9A86F8EB2323</title>
    <desc>Created with sketchtool.</desc>
    <defs></defs>
    <g id="Page-1" stroke="none" stroke-width="1" fill="none" fill-rule="evenodd">
        <g id="03Habba-ProductList-02" transform="translate(-1026.000000, -174.000000)" stroke="#686868">
            <g id="sort" transform="translate(1026.600594, 174.908172)">
                <path d="M3.72317684,0.0451894498 L3.72317684,14.2079245" id="Stroke-1"></path>
                <polyline id="Stroke-3" points="0.255591528 11.1642524 3.71095762 14.6203415 7.19090676 11.1403924"></polyline>
                <path d="M6.70430677,0.361515598 L18.4535637,0.361515598" id="Stroke-5"></path>
                <path d="M6.70430677,3.29384092 L18.4535637,3.29384092" id="Stroke-8"></path>
                <path d="M6.70430677,6.22623854 L15.1999233,6.22623854" id="Stroke-12"></path>
                <path d="M6.70430677,9.15863617 L12.3077985,9.15863617" id="Stroke-13"></path>
            </g>
        </g>
    </g>
</svg>